%YAML 1.1
%TAG !u! tag:unity3d.com,2011:
--- !u!1 &6324207425778800427
GameObject:
  m_ObjectHideFlags: 0
  m_CorrespondingSourceObject: {fileID: 0}
  m_PrefabInstance: {fileID: 0}
  m_PrefabAsset: {fileID: 0}
  serializedVersion: 6
  m_Component:
  - component: {fileID: 4561266965746712665}
  m_Layer: 0
  m_Name: Table
  m_TagString: Untagged
  m_Icon: {fileID: 0}
  m_NavMeshLayer: 0
  m_StaticEditorFlags: 2147483647
  m_IsActive: 1
--- !u!4 &4561266965746712665
Transform:
  m_ObjectHideFlags: 0
  m_CorrespondingSourceObject: {fileID: 0}
  m_PrefabInstance: {fileID: 0}
  m_PrefabAsset: {fileID: 0}
  m_GameObject: {fileID: 6324207425778800427}
  m_LocalRotation: {x: 0, y: 0, z: 0, w: 1}
  m_LocalPosition: {x: 0, y: 0, z: 0}
  m_LocalScale: {x: 1, y: 1, z: 1}
  m_ConstrainProportionsScale: 0
  m_Children:
  - {fileID: 4760701418750424135}
  m_Father: {fileID: 0}
  m_RootOrder: 0
  m_LocalEulerAnglesHint: {x: 0, y: 0, z: 0}
--- !u!1001 &5015833279495689132
PrefabInstance:
  m_ObjectHideFlags: 0
  serializedVersion: 2
  m_Modification:
    m_TransformParent: {fileID: 4561266965746712665}
    m_Modifications:
    - target: {fileID: -8679921383154817045, guid: ea5cc2e59af0b5eeda8629a8f23acb90,
        type: 3}
      propertyPath: m_RootOrder
      value: 0
      objectReference: {fileID: 0}
    - target: {fileID: -8679921383154817045, guid: ea5cc2e59af0b5eeda8629a8f23acb90,
        type: 3}
      propertyPath: m_LocalScale.x
      value: 1
      objectReference: {fileID: 0}
    - target: {fileID: -8679921383154817045, guid: ea5cc2e59af0b5eeda8629a8f23acb90,
        type: 3}
      propertyPath: m_LocalScale.y
      value: 1
      objectReference: {fileID: 0}
    - target: {fileID: -8679921383154817045, guid: ea5cc2e59af0b5eeda8629a8f23acb90,
        type: 3}
      propertyPath: m_LocalScale.z
      value: 1
      objectReference: {fileID: 0}
    - target: {fileID: -8679921383154817045, guid: ea5cc2e59af0b5eeda8629a8f23acb90,
        type: 3}
      propertyPath: m_LocalPosition.x
      value: -0
      objectReference: {fileID: 0}
    - target: {fileID: -8679921383154817045, guid: ea5cc2e59af0b5eeda8629a8f23acb90,
        type: 3}
      propertyPath: m_LocalPosition.y
      value: 0
      objectReference: {fileID: 0}
    - target: {fileID: -8679921383154817045, guid: ea5cc2e59af0b5eeda8629a8f23acb90,
        type: 3}
      propertyPath: m_LocalPosition.z
      value: 0
      objectReference: {fileID: 0}
    - target: {fileID: -8679921383154817045, guid: ea5cc2e59af0b5eeda8629a8f23acb90,
        type: 3}
      propertyPath: m_LocalRotation.w
      value: 0.7071067
      objectReference: {fileID: 0}
    - target: {fileID: -8679921383154817045, guid: ea5cc2e59af0b5eeda8629a8f23acb90,
        type: 3}
      propertyPath: m_LocalRotation.x
      value: -0.7071068
      objectReference: {fileID: 0}
    - target: {fileID: -8679921383154817045, guid: ea5cc2e59af0b5eeda8629a8f23acb90,
        type: 3}
      propertyPath: m_LocalRotation.y
      value: 0
      objectReference: {fileID: 0}
    - target: {fileID: -8679921383154817045, guid: ea5cc2e59af0b5eeda8629a8f23acb90,
        type: 3}
      propertyPath: m_LocalRotation.z
      value: -0
      objectReference: {fileID: 0}
    - target: {fileID: -8679921383154817045, guid: ea5cc2e59af0b5eeda8629a8f23acb90,
        type: 3}
      propertyPath: m_LocalEulerAnglesHint.x
      value: 0
      objectReference: {fileID: 0}
    - target: {fileID: -8679921383154817045, guid: ea5cc2e59af0b5eeda8629a8f23acb90,
        type: 3}
      propertyPath: m_LocalEulerAnglesHint.y
      value: 0
      objectReference: {fileID: 0}
    - target: {fileID: -8679921383154817045, guid: ea5cc2e59af0b5eeda8629a8f23acb90,
        type: 3}
      propertyPath: m_LocalEulerAnglesHint.z
      value: 0
      objectReference: {fileID: 0}
    - target: {fileID: 919132149155446097, guid: ea5cc2e59af0b5eeda8629a8f23acb90,
        type: 3}
      propertyPath: m_Name
      value: Table_Big
      objectReference: {fileID: 0}
    - target: {fileID: 919132149155446097, guid: ea5cc2e59af0b5eeda8629a8f23acb90,
        type: 3}
      propertyPath: m_StaticEditorFlags
      value: 2147483647
      objectReference: {fileID: 0}
    m_RemovedComponents: []
  m_SourcePrefab: {fileID: 100100000, guid: ea5cc2e59af0b5eeda8629a8f23acb90, type: 3}
--- !u!4 &4760701418750424135 stripped
Transform:
  m_CorrespondingSourceObject: {fileID: -8679921383154817045, guid: ea5cc2e59af0b5eeda8629a8f23acb90,
    type: 3}
  m_PrefabInstance: {fileID: 5015833279495689132}
  m_PrefabAsset: {fileID: 0}
--- !u!1 &5285739538925317885 stripped
GameObject:
  m_CorrespondingSourceObject: {fileID: 919132149155446097, guid: ea5cc2e59af0b5eeda8629a8f23acb90,
    type: 3}
  m_PrefabInstance: {fileID: 5015833279495689132}
  m_PrefabAsset: {fileID: 0}
--- !u!65 &1246933033850122654
BoxCollider:
  m_ObjectHideFlags: 0
  m_CorrespondingSourceObject: {fileID: 0}
  m_PrefabInstance: {fileID: 0}
  m_PrefabAsset: {fileID: 0}
  m_GameObject: {fileID: 5285739538925317885}
  m_Material: {fileID: 0}
  m_IsTrigger: 0
  m_Enabled: 1
  serializedVersion: 2
  m_Size: {x: 1.5844661, y: 3.3033314, z: 0.8540232}
  m_Center: {x: 0.0021651387, y: 0.047811203, z: 0.421867}
